sequential-logic/registers/jeff-74x377/jeff-74x377-tb.vcd
$date
	Wed Oct 28 10:44:21 2020
$end
$version
	Icarus Verilog
$end
$timescale
	1ns
$end
$scope module jeff_74x377_tb $end
$var wire 1 ! Q7 $end
$var wire 1 " Q6 $end
$var wire 1 # Q5 $end
$var wire 1 $ Q4 $end
$var wire 1 % Q3 $end
$var wire 1 & Q2 $end
$var wire 1 ' Q1 $end
$var wire 1 ( Q0 $end
$var reg 1 ) CLK $end
$var reg 1 * D0 $end
$var reg 1 + D1 $end
$var reg 1 , D2 $end
$var reg 1 - D3 $end
$var reg 1 . D4 $end
$var reg 1 / D5 $end
$var reg 1 0 D6 $end
$var reg 1 1 D7 $end
$var reg 1 2 EN_BAR $end
$scope module uut $end
$var wire 1 3 NOTHING $end
$var wire 1 ) clk $end
$var wire 1 * d0 $end
$var wire 1 + d1 $end
$var wire 1 , d2 $end
$var wire 1 - d3 $end
$var wire 1 . d4 $end
$var wire 1 / d5 $end
$var wire 1 0 d6 $end
$var wire 1 1 d7 $end
$var wire 1 4 en $end
$var wire 1 2 en_bar $end
$var wire 1 5 feedback $end
$var wire 1 6 to_en $end
$var wire 1 ! q7 $end
$var wire 1 " q6 $end
$var wire 1 # q5 $end
$var wire 1 $ q4 $end
$var wire 1 % q3 $end
$var wire 1 & q2 $end
$var wire 1 ' q1 $end
$var wire 1 ( q0 $end
$scope module DFF0 $end
$var wire 1 ) clk $end
$var wire 1 * d $end
$var wire 1 6 en $end
$var wire 1 3 q_bar $end
$var reg 1 ( q $end
$upscope $end
$scope module DFF1 $end
$var wire 1 ) clk $end
$var wire 1 + d $end
$var wire 1 6 en $end
$var wire 1 3 q_bar $end
$var reg 1 ' q $end
$upscope $end
$scope module DFF2 $end
$var wire 1 ) clk $end
$var wire 1 , d $end
$var wire 1 6 en $end
$var wire 1 3 q_bar $end
$var reg 1 & q $end
$upscope $end
$scope module DFF3 $end
$var wire 1 ) clk $end
$var wire 1 - d $end
$var wire 1 6 en $end
$var wire 1 3 q_bar $end
$var reg 1 % q $end
$upscope $end
$scope module DFF4 $end
$var wire 1 ) clk $end
$var wire 1 . d $end
$var wire 1 6 en $end
$var wire 1 3 q_bar $end
$var reg 1 $ q $end
$upscope $end
$scope module DFF5 $end
$var wire 1 ) clk $end
$var wire 1 / d $end
$var wire 1 6 en $end
$var wire 1 3 q_bar $end
$var reg 1 # q $end
$upscope $end
$scope module DFF6 $end
$var wire 1 ) clk $end
$var wire 1 0 d $end
$var wire 1 6 en $end
$var wire 1 3 q_bar $end
$var reg 1 " q $end
$upscope $end
$scope module DFF7 $end
$var wire 1 ) clk $end
$var wire 1 1 d $end
$var wire 1 6 en $end
$var wire 1 3 q_bar $end
$var reg 1 ! q $end
$upscope $end
$upscope $end
$upscope $end
$enddefinitions $end
#0
$dumpvars
16
05
14
13
02
01
00
0/
0.
0-
0,
0+
0*
0)
0(
0'
0&
0%
0$
0#
0"
0!
$end
#10
1)
#15
15
06
04
12
#20
05
0)
#30
15
1)
#35
14
02
#40
16
05
0)
#50
1)
#55
1.
1/
#60
0)
#70
x3
1$
1#
1)
#80
0)
#90
1)
#100
0)
#110
1)
#120
0)
#130
1)
#140
0)
#150
1)
#160
0)
#170
1)
#180
0)
#190
1)
#195
1+
1,
#200
0)
#210
1&
1'
1)
#215
0/
10
11
#220
0)
#230
0#
1"
1!
1)
#240
0)
#250
1)
#260
0)
#270
1)
#280
0)
#290
1)
#300
0)
#310
1)
#320
0)
#330
1)
#335
15
06
04
12
#340
05
0)
#350
15
1)
#355
1*
1-
0.
00
01
#360
05
0)
#370
15
1)
#375
14
02
#380
1(
1%
0$
0"
0!
16
05
0)
