combinational-logic/alus/jeff-74x181/jeff-74x181-tb.vcd
$date
	Mon Oct 26 12:42:58 2020
$end
$version
	Icarus Verilog
$end
$timescale
	1ns
$end
$scope module jeff_74x181_tb $end
$var wire 1 ! Y $end
$var wire 1 " X $end
$var wire 4 # F [3:0] $end
$var wire 1 $ CO_BAR $end
$var wire 1 % AEQB $end
$var reg 4 & A [3:0] $end
$var reg 4 ' B [3:0] $end
$var reg 1 ( CI_BAR $end
$var reg 1 ) M $end
$var reg 4 * S [3:0] $end
$scope module uut $end
$var wire 1 + a0 $end
$var wire 1 , a1 $end
$var wire 1 - a2 $end
$var wire 1 . a3 $end
$var wire 1 / b0 $end
$var wire 1 0 b1 $end
$var wire 1 1 b2 $end
$var wire 1 2 b3 $end
$var wire 1 ( ci_bar $end
$var wire 1 ) m $end
$var wire 1 3 s0 $end
$var wire 1 4 s1 $end
$var wire 1 5 s2 $end
$var wire 1 6 s3 $end
$var wire 1 ! y $end
$var wire 1 " x $end
$var wire 1 7 m_bar $end
$var wire 1 8 input3_out2 $end
$var wire 1 9 input3_out1 $end
$var wire 1 : input2_out2 $end
$var wire 1 ; input2_out1 $end
$var wire 1 < input1_out2 $end
$var wire 1 = input1_out1 $end
$var wire 1 > input0_out2 $end
$var wire 1 ? input0_out1 $end
$var wire 1 @ f3 $end
$var wire 1 A f2 $end
$var wire 1 B f1 $end
$var wire 1 C f0 $end
$var wire 1 $ co_bar $end
$var wire 1 % aeqb $end
$scope module AEQB $end
$var wire 1 % aeqb $end
$var wire 1 @ f3 $end
$var wire 1 A f2 $end
$var wire 1 B f1 $end
$var wire 1 C f0 $end
$upscope $end
$scope module GPC $end
$var wire 1 ( ci_bar $end
$var wire 1 $ co_bar $end
$var wire 1 " x $end
$var wire 1 ! y $end
$var wire 1 8 input3_out2 $end
$var wire 1 9 input3_out1 $end
$var wire 1 : input2_out2 $end
$var wire 1 ; input2_out1 $end
$var wire 1 < input1_out2 $end
$var wire 1 = input1_out1 $end
$var wire 1 > input0_out2 $end
$var wire 1 ? input0_out1 $end
$upscope $end
$scope module INPUT0 $end
$var wire 1 + a $end
$var wire 1 / b $end
$var wire 1 ? out1 $end
$var wire 1 > out2 $end
$var wire 1 3 s0 $end
$var wire 1 4 s1 $end
$var wire 1 5 s2 $end
$var wire 1 6 s3 $end
$upscope $end
$scope module INPUT1 $end
$var wire 1 , a $end
$var wire 1 0 b $end
$var wire 1 = out1 $end
$var wire 1 < out2 $end
$var wire 1 3 s0 $end
$var wire 1 4 s1 $end
$var wire 1 5 s2 $end
$var wire 1 6 s3 $end
$upscope $end
$scope module INPUT2 $end
$var wire 1 - a $end
$var wire 1 1 b $end
$var wire 1 ; out1 $end
$var wire 1 : out2 $end
$var wire 1 3 s0 $end
$var wire 1 4 s1 $end
$var wire 1 5 s2 $end
$var wire 1 6 s3 $end
$upscope $end
$scope module INPUT3 $end
$var wire 1 . a $end
$var wire 1 2 b $end
$var wire 1 9 out1 $end
$var wire 1 8 out2 $end
$var wire 1 3 s0 $end
$var wire 1 4 s1 $end
$var wire 1 5 s2 $end
$var wire 1 6 s3 $end
$upscope $end
$scope module M_BAR $end
$var wire 1 ) a $end
$var wire 1 7 y $end
$upscope $end
$scope module OUT_F0 $end
$var wire 1 ( ci_bar $end
$var wire 1 C f0 $end
$var wire 1 ? input0_out1 $end
$var wire 1 > input0_out2 $end
$var wire 1 7 m_bar $end
$upscope $end
$scope module OUT_F1 $end
$var wire 1 ( ci_bar $end
$var wire 1 B f1 $end
$var wire 1 ? input0_out1 $end
$var wire 1 > input0_out2 $end
$var wire 1 = input1_out1 $end
$var wire 1 < input1_out2 $end
$var wire 1 7 m_bar $end
$upscope $end
$scope module OUT_F2 $end
$var wire 1 ( ci_bar $end
$var wire 1 A f2 $end
$var wire 1 ? input0_out1 $end
$var wire 1 > input0_out2 $end
$var wire 1 = input1_out1 $end
$var wire 1 < input1_out2 $end
$var wire 1 ; input2_out1 $end
$var wire 1 : input2_out2 $end
$var wire 1 7 m_bar $end
$upscope $end
$scope module OUT_F3 $end
$var wire 1 ( ci_bar $end
$var wire 1 @ f3 $end
$var wire 1 ? input0_out1 $end
$var wire 1 > input0_out2 $end
$var wire 1 = input1_out1 $end
$var wire 1 < input1_out2 $end
$var wire 1 ; input2_out1 $end
$var wire 1 : input2_out2 $end
$var wire 1 9 input3_out1 $end
$var wire 1 8 input3_out2 $end
$var wire 1 7 m_bar $end
$upscope $end
$upscope $end
$upscope $end
$enddefinitions $end
#0
$dumpvars
0C
0B
1A
0@
1?
0>
1=
0<
1;
1:
19
08
07
06
05
04
03
02
11
00
0/
1.
0-
1,
1+
b0 *
1)
0(
b100 '
b1011 &
0%
1$
b100 #
0"
0!
$end
#20
1C
b1 #
0A
1>
0:
10
0+
1-
13
b110 '
b1110 &
b1 *
#40
1$
0!
0C
b1000 #
1@
0>
18
1/
00
01
12
1+
0.
03
14
b1001 '
b111 &
b10 *
#60
0$
1!
0C
b0 #
0@
0>
08
10
02
0+
0-
1.
13
b11 '
b1010 &
b11 *
#80
1$
0!
1C
1B
b1011 #
1@
1>
1<
18
0/
00
11
12
0,
1-
0.
03
04
15
b1100 '
b100 &
b100 *
#100
0C
0B
0@
b100 #
1A
0>
0<
08
1:
1/
10
01
0-
13
b1011 '
b0 &
b101 *
#120
0%
1C
1"
0B
1@
0?
0;
b1101 #
1A
0<
18
0:
0/
00
1+
1-
03
14
b1000 '
b101 &
b110 *
#140
0$
0C
0A
1!
1?
1;
09
b1000 #
1@
08
1/
10
11
02
0-
1.
13
b111 '
b1001 &
b111 *
#160
1$
0!
0"
b1001 #
1C
1>
18
19
0/
00
01
12
0+
1,
1-
0.
03
04
05
16
b1000 '
b110 &
b1000 *
#180
0@
0C
b10 #
1B
08
0>
1<
1+
0,
13
b101 &
b1001 *
#200
0$
1"
1A
1!
1@
0;
b1100 #
0B
09
0<
11
1,
1.
03
14
b1100 '
b1111 &
b1010 *
#220
0$
1C
1!
0?
0A
b1 #
0@
1;
19
0:
08
1/
02
0-
0.
13
b101 '
b11 &
b1011 *
#240
1$
1%
0!
1A
1@
b1111 #
1B
1:
18
0=
0/
03
04
15
b100 '
b1100 *
#260
0%
0A
1=
b1001 #
0B
0:
0<
10
0,
13
b110 '
b1 &
b1101 *
#280
0$
1!
0A
0@
1B
1?
b11 #
1C
0:
08
0=
1>
1/
00
01
0+
1,
03
14
b1 '
b10 &
b1110 *
#300
b10 #
0C
0>
0/
10
12
13
b1010 '
b1111 *
#320
0!
1@
1$
0"
0A
1<
1:
0B
1=
b1001 #
1C
00
11
02
1+
0,
1.
03
04
05
06
17
b100 '
b1001 &
b0 *
1(
0)
#340
1A
1B
b111 #
0@
0:
0<
18
10
1,
0.
13
b110 '
b11 &
b1 *
#360
0!
1A
b111 #
0@
0:
18
1/
00
01
12
03
14
b1001 '
b10 *
#380
1%
1!
1C
b1111 #
1@
0>
08
0/
11
02
0+
0,
1.
13
b100 '
b1000 &
b11 *
#400
0!
0%
1$
1A
0@
0C
1"
b110 #
1B
1:
18
0?
0=
12
1+
1,
0.
03
04
15
b1100 '
b11 &
b100 *
#420
0$
1!
0A
b10 #
0@
0:
08
13
b101 *
#440
1C
1B
0@
b11 #
0A
1?
1=
09
1:
1/
10
02
1.
03
14
b111 '
b1011 &
b110 *
#460
0@
0;
b11 #
0A
19
0:
01
12
1-
0.
13
b1011 '
b111 &
b111 *
#480
1$
1A
0!
0@
b101 #
0B
18
1:
1;
0=
0/
02
0-
03
04
05
16
b10 '
b11 &
b1000 *
#500
1B
b110 #
0C
0?
1/
13
b11 '
b1001 *
#520
0$
1!
0B
1C
0A
b1 #
0@
0>
0:
08
1?
0/
0+
03
14
b10 '
b10 &
b1010 *
#540
0%
0$
0@
1"
1A
1!
09
b111 #
1B
1=
0<
00
12
0,
1.
13
b1000 '
b1000 &
b1011 *
#560
1$
0!
0C
1B
b110 #
1A
0?
0=
18
1:
19
1/
10
02
1+
1,
0.
03
04
15
b11 '
b11 &
b1100 *
#580
1@
1"
0;
0C
0B
b1000 #
0A
1?
1=
1>
1<
0:
0/
00
11
0+
0,
1-
13
b100 '
b100 &
b1101 *
#600
1$
0!
1B
1@
0?
b1010 #
0C
1<
18
0>
10
12
1+
03
14
b1110 '
b101 &
b1110 *
#620
0$
1A
1!
1B
b1110 #
1@
0=
09
0<
08
1/
00
02
1,
1.
13
b101 '
b1111 &
b1111 *
#640
1$
0A
0!
0"
1@
1:
1<
1=
19
1?
1;
0%
b1010 #
0C
0/
0,
0-
03
04
05
06
b100 '
b1001 &
b0 *
0(
#660
0B
b1000 #
1@
0:
0<
18
10
1,
0.
13
b110 '
b11 &
b1 *
#680
1$
0!
0A
b1000 #
1@
0:
18
1/
00
01
12
03
14
b1001 '
b10 *
#700
0$
1!
0A
0B
0C
b0 #
0@
0>
08
0/
11
02
0+
0,
1.
13
b100 '
b1000 &
b11 *
#720
1$
0%
0!
1A
0@
1C
1"
b111 #
1B
1:
18
0?
0=
12
1+
1,
0.
03
04
15
b1100 '
b11 &
b100 *
#740
0$
1!
0A
b11 #
0@
0:
08
13
b101 *
#760
0C
0B
0@
b100 #
1A
1?
1=
09
1:
1/
10
02
1.
03
14
b111 '
b1011 &
b110 *
#780
0;
b100 #
1A
19
0:
01
12
1-
0.
13
b1011 '
b111 &
b111 *
#800
1$
0!
0@
b110 #
1B
18
1:
1;
0=
0/
02
0-
03
04
05
16
b10 '
b11 &
b1000 *
#820
b111 #
1C
0?
1/
13
b11 '
b1001 *
#840
0$
1!
1B
0C
0A
b10 #
0@
0>
0:
08
1?
0/
0+
03
14
b10 '
b10 &
b1010 *
#860
0$
1@
1"
0A
1!
09
b1000 #
0B
1=
0<
00
12
0,
1.
13
b1000 '
b1000 &
b1011 *
#880
1$
0!
0@
0%
1C
1B
b111 #
1A
0?
0=
18
1:
19
1/
10
02
1+
1,
0.
03
04
15
b11 '
b11 &
b1100 *
#900
1@
1"
0;
1C
0B
b1001 #
0A
1?
1=
1>
1<
0:
0/
00
11
0+
0,
1-
13
b100 '
b100 &
b1101 *
#920
1$
0%
0A
0!
1B
1@
0?
b1011 #
1C
1<
18
0>
10
12
1+
03
14
b1110 '
b101 &
b1110 *
#940
1%
0$
1A
1!
1B
b1111 #
1@
0=
09
0<
08
1/
00
02
1,
1.
13
b101 '
b1111 &
b1111 *
