combinational-logic/alus/jeff_74x181/jeff_74x181_tb.vcd
$date
	Wed May  3 19:20:58 2023
$end
$version
	Icarus Verilog
$end
$timescale
	100ps
$end
$scope module JEFF_74x181_TB $end
$var wire 1 ! Y $end
$var wire 1 " X $end
$var wire 4 # F [3:0] $end
$var wire 1 $ CO_BAR $end
$var wire 1 % AEQB $end
$var parameter 32 & TICKPERIOD $end
$var reg 4 ' A [3:0] $end
$var reg 4 ( B [3:0] $end
$var reg 1 ) CI_BAR $end
$var reg 256 * COMMENT [255:0] $end
$var reg 32 + ERRORS [31:0] $end
$var reg 4 , FEXPECTED [3:0] $end
$var reg 1 - M $end
$var reg 4 . S [3:0] $end
$var reg 1 / TICK $end
$var reg 32 0 VECTORCOUNT [31:0] $end
$var integer 32 1 COUNT [31:0] $end
$var integer 32 2 FD [31:0] $end
$scope module UUT_jeff_74x181 $end
$var wire 1 3 a0 $end
$var wire 1 4 a1 $end
$var wire 1 5 a2 $end
$var wire 1 6 a3 $end
$var wire 1 7 b0 $end
$var wire 1 8 b1 $end
$var wire 1 9 b2 $end
$var wire 1 : b3 $end
$var wire 1 ) ci_bar $end
$var wire 1 - m $end
$var wire 1 ; s0 $end
$var wire 1 < s1 $end
$var wire 1 = s2 $end
$var wire 1 > s3 $end
$var wire 1 ! y $end
$var wire 1 " x $end
$var wire 1 ? m_bar $end
$var wire 1 @ input3_out2 $end
$var wire 1 A input3_out1 $end
$var wire 1 B input2_out2 $end
$var wire 1 C input2_out1 $end
$var wire 1 D input1_out2 $end
$var wire 1 E input1_out1 $end
$var wire 1 F input0_out2 $end
$var wire 1 G input0_out1 $end
$var wire 1 H f3 $end
$var wire 1 I f2 $end
$var wire 1 J f1 $end
$var wire 1 K f0 $end
$var wire 1 $ co_bar $end
$var wire 1 % aeqb $end
$scope module AEQB $end
$var wire 1 % aeqb $end
$var wire 1 H f3 $end
$var wire 1 I f2 $end
$var wire 1 J f1 $end
$var wire 1 K f0 $end
$upscope $end
$scope module GPC $end
$var wire 1 ) ci_bar $end
$var wire 1 $ co_bar $end
$var wire 1 " x $end
$var wire 1 ! y $end
$var wire 1 @ input3_out2 $end
$var wire 1 A input3_out1 $end
$var wire 1 B input2_out2 $end
$var wire 1 C input2_out1 $end
$var wire 1 D input1_out2 $end
$var wire 1 E input1_out1 $end
$var wire 1 F input0_out2 $end
$var wire 1 G input0_out1 $end
$upscope $end
$scope module INPUT0 $end
$var wire 1 3 a $end
$var wire 1 7 b $end
$var wire 1 G out1 $end
$var wire 1 F out2 $end
$var wire 1 ; s0 $end
$var wire 1 < s1 $end
$var wire 1 = s2 $end
$var wire 1 > s3 $end
$upscope $end
$scope module INPUT1 $end
$var wire 1 4 a $end
$var wire 1 8 b $end
$var wire 1 E out1 $end
$var wire 1 D out2 $end
$var wire 1 ; s0 $end
$var wire 1 < s1 $end
$var wire 1 = s2 $end
$var wire 1 > s3 $end
$upscope $end
$scope module INPUT2 $end
$var wire 1 5 a $end
$var wire 1 9 b $end
$var wire 1 C out1 $end
$var wire 1 B out2 $end
$var wire 1 ; s0 $end
$var wire 1 < s1 $end
$var wire 1 = s2 $end
$var wire 1 > s3 $end
$upscope $end
$scope module INPUT3 $end
$var wire 1 6 a $end
$var wire 1 : b $end
$var wire 1 A out1 $end
$var wire 1 @ out2 $end
$var wire 1 ; s0 $end
$var wire 1 < s1 $end
$var wire 1 = s2 $end
$var wire 1 > s3 $end
$upscope $end
$scope module M_BAR $end
$var wire 1 - a $end
$var wire 1 ? y $end
$upscope $end
$scope module OUT_F0 $end
$var wire 1 ) ci_bar $end
$var wire 1 K f0 $end
$var wire 1 G input0_out1 $end
$var wire 1 F input0_out2 $end
$var wire 1 ? m_bar $end
$upscope $end
$scope module OUT_F1 $end
$var wire 1 ) ci_bar $end
$var wire 1 J f1 $end
$var wire 1 G input0_out1 $end
$var wire 1 F input0_out2 $end
$var wire 1 E input1_out1 $end
$var wire 1 D input1_out2 $end
$var wire 1 ? m_bar $end
$upscope $end
$scope module OUT_F2 $end
$var wire 1 ) ci_bar $end
$var wire 1 I f2 $end
$var wire 1 G input0_out1 $end
$var wire 1 F input0_out2 $end
$var wire 1 E input1_out1 $end
$var wire 1 D input1_out2 $end
$var wire 1 C input2_out1 $end
$var wire 1 B input2_out2 $end
$var wire 1 ? m_bar $end
$upscope $end
$scope module OUT_F3 $end
$var wire 1 ) ci_bar $end
$var wire 1 H f3 $end
$var wire 1 G input0_out1 $end
$var wire 1 F input0_out2 $end
$var wire 1 E input1_out1 $end
$var wire 1 D input1_out2 $end
$var wire 1 C input2_out1 $end
$var wire 1 B input2_out2 $end
$var wire 1 A input3_out1 $end
$var wire 1 @ input3_out2 $end
$var wire 1 ? m_bar $end
$upscope $end
$upscope $end
$upscope $end
$enddefinitions $end
$comment Show the parameter values. $end
$dumpall
b10100 &
$end
#0
$dumpvars
0K
0J
1I
0H
1G
0F
1E
0D
1C
1B
1A
0@
0?
0>
0=
0<
0;
0:
19
08
07
16
05
14
13
b10000000000000000000000000000011 2
b111 1
b0 0
0/
b0 .
1-
b100 ,
b0 +
b1001001010011100100100101010100 *
0)
b100 (
b1011 '
0%
1$
b100 #
0"
0!
$end
#100
1/
#200
0/
#250
b1 0
b101000001000010100000100101001 *
#300
1/
#400
0/
#450
1K
b1 #
0I
1F
0B
18
03
15
1;
b10 0
b1 ,
b110 (
b1110 '
b1 .
b1000010010100001000001001010110100001000101001 *
#500
1/
#600
0/
#650
1$
0!
0K
b1000 #
1H
0F
1@
17
08
09
1:
13
06
0;
1<
b11 0
b1000 ,
b1001 (
b111 '
b10 .
b10100000100001010000010010100101000010 *
#700
1/
#800
0/
#850
0$
1!
0K
b0 #
0H
0F
0@
18
0:
03
05
16
1;
b100 0
b0 ,
b11 (
b1010 '
b11 .
b110000 *
#900
1/
#1000
0/
#1050
1$
0!
1K
1J
b1011 #
1H
1F
1D
1@
07
08
19
1:
04
15
06
0;
0<
1=
b101 0
b1011 ,
b1100 (
b100 '
b100 .
b10000100101000010000010100001000101001 *
#1100
1/
#1200
0/
#1250
0K
0J
0H
b100 #
1I
0F
0D
0@
1B
17
18
09
05
1;
b110 0
b100 ,
b1011 (
b0 '
b101 .
b10000101000010 *
#1300
1/
#1400
0/
#1450
0%
1K
1"
0J
1H
0G
0C
b1101 #
1I
0D
1@
0B
07
08
13
15
0;
1<
b111 0
b1101 ,
b1000 (
b101 '
b110 .
b10000010101111001000010 *
#1500
1/
#1600
0/
#1650
0$
0K
0I
1!
1G
1C
0A
b1000 #
1H
0@
17
18
19
0:
05
16
1;
b1000 0
b1000 ,
b111 (
b1001 '
b111 .
b100000100101000001000010100001000101001 *
#1700
1/
#1800
0/
#1850
1$
0!
0"
b1001 #
1K
1F
1@
1A
07
08
09
1:
03
14
15
06
0;
0<
0=
1>
b1001 0
b1001 ,
b1000 (
b110 '
b1000 .
b100001010000010010101101000010 *
#1900
1/
#2000
0/
#2050
0H
0K
b10 #
1J
0@
0F
1D
13
04
1;
b1010 0
b10 ,
b101 '
b1001 .
b1000010010100001000001010111100100001000101001 *
#2100
1/
#2200
0/
#2250
0$
1"
1I
1!
1H
0C
b1100 #
0J
0A
0D
19
14
16
0;
1<
b1011 0
b1100 ,
b1100 (
b1111 '
b1010 .
b1000010 *
#2300
1/
#2400
0/
#2450
0$
1K
1!
0G
0I
b1 #
0H
1C
1A
0B
0@
17
0:
05
06
1;
b1100 0
b1 ,
b101 (
b11 '
b1011 .
b100000101000010 *
#2500
1/
#2600
0/
#2650
1$
1%
0!
1I
1H
b1111 #
1J
1B
1@
0E
07
0;
0<
1=
b1101 0
b1111 ,
b100 (
b1100 .
b110001 *
#2700
1/
#2800
0/
#2850
0%
0I
1E
b1001 #
0J
0B
0D
18
04
1;
b1110 0
b1001 ,
b110 (
b1 '
b1101 .
b1000001001010110010000101000010 *
#2900
1/
#3000
0/
#3050
0$
1!
0I
0H
1J
1G
b11 #
1K
0B
0@
0E
1F
17
08
09
03
14
0;
1<
b1111 0
b11 ,
b1 (
b10 '
b1110 .
b10000010010101101000010 *
#3100
1/
#3200
0/
#3250
b10 #
0K
0F
07
18
1:
1;
b10000 0
b10 ,
b1010 (
b1111 .
b1000001 *
#3300
1/
#3400
0/
#3450
0!
1H
1$
0"
0I
1D
1B
0J
1E
b1001 #
1K
08
19
0:
13
04
16
0;
0<
0=
0>
1?
b10001 0
b1001 ,
b100 (
b1001 '
b0 .
1)
0-
#3500
1/
#3600
0/
#3650
1I
1J
b111 #
0H
0B
0D
1@
18
14
06
1;
b10010 0
b111 ,
b110 (
b11 '
b1 .
b10000010010101101000010 *
#3700
1/
#3800
0/
#3850
0!
1I
b111 #
0H
0B
1@
17
08
09
1:
0;
1<
b10011 0
b1001 (
b10 .
b1000001001010110010000101000010 *
#3900
1/
#4000
0/
#4050
1%
1!
1K
b1111 #
1H
0F
0@
07
19
0:
03
04
16
1;
b10100 0
b1111 ,
b100 (
b1000 '
b11 .
b10011010100100101001110010101010101001100110001001010000011001000100111011100110100001101101111011011010111000000101001 *
#4100
1/
#4200
0/
#4250
0!
0%
1$
1I
0H
0K
1"
b110 #
1J
1B
1@
0G
0E
1:
13
14
06
0;
0<
1=
b10101 0
b110 ,
b1100 (
b11 '
b100 .
b1000001011100000110110001110101011100110100000100101000001000010100001000101001 *
#4300
1/
#4400
0/
#4450
0$
1!
0I
b10 #
0H
0B
0@
1;
b10110 0
b10 ,
b101 .
b10100001000001001010110100001000101001011100000110110001110101011100110100000100101000001000010100001000101001 *
#4500
1/
#4600
0/
#4650
1K
1J
0H
b11 #
0I
1G
1E
0A
1B
17
18
0:
16
0;
1<
b10111 0
b11 ,
b111 (
b1011 '
b110 .
b1000001011011010110100101101110011101010111001101000010011011010110100101101110011101010111001100110001 *
#4700
1/
#4800
0/
#4850
0H
0C
b11 #
0I
1A
0B
09
1:
15
06
1;
b11000 0
b1011 (
b111 '
b111 .
b100000100101000001000010100001000101001011011010110100101101110011101010111001100110001 *
#4900
1/
#5000
0/
#5050
1$
1I
0!
0H
b101 #
0J
1@
1B
1C
0E
07
0:
05
0;
0<
0=
1>
b11001 0
b101 ,
b10 (
b11 '
b1000 .
b1000001011100000110110001110101011100110100000101000010 *
#5100
1/
#5200
0/
#5250
1J
b110 #
0K
0G
17
1;
b11010 0
b110 ,
b11 (
b1001 .
b10000010111000001101100011101010111001101000010 *
#5300
1/
#5400
0/
#5450
0$
1!
0J
1K
0I
b1 #
0H
0F
0B
0@
1G
07
03
0;
1<
b11011 0
b1 ,
b10 (
b10 '
b1010 .
b1010000100000100101011001000010100001000101001011100000110110001110101011100110100000101000010 *
#5500
1/
#5600
0/
#5650
0%
0$
0H
1"
1I
1!
0A
b111 #
1J
1E
0D
08
1:
04
16
1;
b11100 0
b111 ,
b1000 (
b1000 '
b1011 .
b100000101000010011011010110100101101110011101010111001100110001 *
#5700
1/
#5800
0/
#5850
1$
0!
0K
1J
b110 #
1I
0G
0E
1@
1B
1A
17
18
0:
13
14
06
0;
0<
1=
b11101 0
b110 ,
b11 (
b11 '
b1100 .
b1000001011100000110110001110101011100110100000100101000011100110110100001101001011001100111010000101001 *
#5900
1/
#6000
0/
#6050
1H
1"
0C
0K
0J
b1000 #
0I
1G
1E
1F
1D
0B
07
08
19
03
04
15
1;
b11110 0
b1000 ,
b100 (
b100 '
b1101 .
b101000010000010010101101000010001010010111000001101100011101010111001101000001 *
#6100
1/
#6200
0/
#6250
1$
0!
1J
1H
0G
b1010 #
0K
1D
1@
0F
18
1:
13
0;
1<
b11111 0
b1010 ,
b1110 (
b101 '
b1110 .
b10100001000001001010110010000101000010001010010111000001101100011101010111001101000001 *
#6300
1/
#6400
0/
#6450
0$
1I
1!
1J
b1110 #
1H
0E
0A
0D
0@
17
08
0:
14
16
1;
b100000 0
b1110 ,
b101 (
b1111 '
b1111 .
b1000001011011010110100101101110011101010111001100110001 *
#6500
1/
#6600
0/
#6650
1$
0I
0!
0"
1H
1B
1D
1E
1A
1G
1C
0%
b1010 #
0K
07
04
05
0;
0<
0=
0>
b100001 0
b1010 ,
b100 (
b1001 '
b0 .
0)
b10000010111000001101100011101010111001100110001 *
#6700
1/
#6800
0/
#6850
0J
b1000 #
1H
0B
0D
1@
18
14
06
1;
b100010 0
b1000 ,
b110 (
b11 '
b1 .
b100000100101011010000100111000001101100011101010111001100110001 *
#6900
1/
#7000
0/
#7050
1$
0!
0I
b1000 #
1H
0B
1@
17
08
09
1:
0;
1<
b100011 0
b1001 (
b10 .
b10000010010101100100001010000100111000001101100011101010111001100110001 *
#7100
1/
#7200
0/
#7250
0$
1!
0I
0J
0K
b0 #
0H
0F
0@
07
19
0:
03
04
16
1;
b100100 0
b0 ,
b100 (
b1000 '
b11 .
b1011010010001010101001001001111 *
#7300
1/
#7400
0/
#7450
1$
0%
0!
1I
0H
1K
1"
b111 #
1J
1B
1@
0G
0E
1:
13
14
06
0;
0<
1=
b100101 0
b111 ,
b1100 (
b11 '
b100 .
b10000010111000001101100011101010111001101000001001010000010000101000010001010010111000001101100011101010111001100110001 *
#7500
1/
#7600
0/
#7650
0$
1!
0I
b11 #
0H
0B
0@
1;
b100110 0
b11 ,
b101 .
b1010000100000100101011010000100010100101110000011011000111010101110011010000010010100000100001010000100010100100110001 *
#7700
1/
#7800
0/
#7850
0K
0J
0H
b100 #
1I
1G
1E
0A
1B
17
18
0:
16
0;
1<
b100111 0
b100 ,
b111 (
b1011 '
b110 .
b1000001011011010110100101101110011101010111001101000010 *
#7900
1/
#8000
0/
#8050
0C
b100 #
1I
1A
0B
09
1:
15
06
1;
b101000 0
b1011 (
b111 '
b111 .
b100000100101000001000010100001000101001 *
#8100
1/
#8200
0/
#8250
1$
0!
0H
b110 #
1J
1@
1B
1C
0E
07
0:
05
0;
0<
0=
1>
b101001 0
b110 ,
b10 (
b11 '
b1000 .
b10000010111000001101100011101010111001101000001010000100111000001101100011101010111001100110001 *
#8300
1/
#8400
0/
#8450
b111 #
1K
0G
17
1;
b101010 0
b111 ,
b11 (
b1001 .
b100000101110000011011000111010101110011010000100111000001101100011101010111001100110001 *
#8500
1/
#8600
0/
#8650
0$
1!
1J
0K
0I
b10 #
0H
0F
0B
0@
1G
07
03
0;
1<
b101011 0
b10 ,
b10 (
b10 '
b1010 .
b10100001000001001010110010000101000010001010010111000001101100011101010111001101000001010000100111000000110001 *
#8700
1/
#8800
0/
#8850
0$
1H
1"
0I
1!
0A
b1000 #
0J
1E
0D
08
1:
04
16
1;
b101100 0
b1000 ,
b1000 (
b1000 '
b1011 .
b100000101000010 *
#8900
1/
#9000
0/
#9050
1$
0!
0H
0%
1K
1J
b111 #
1I
0G
0E
1@
1B
1A
17
18
0:
13
14
06
0;
0<
1=
b101101 0
b111 ,
b11 (
b11 '
b1100 .
b10000010111000001101100011101010111001101000001001010000111001101101000011010010110011001110100001010010111000000110001 *
#9100
1/
#9200
0/
#9250
1H
1"
0C
1K
0J
b1001 #
0I
1G
1E
1F
1D
0B
07
08
19
03
04
15
1;
b101110 0
b1001 ,
b100 (
b100 '
b1101 .
b1010000100000100101011010000100010100101110000011011000111010101110011010000010111000001101100011101010111001100110001 *
#9300
1/
#9400
0/
#9450
1$
0%
0I
0!
1J
1H
0G
b1011 #
1K
1D
1@
0F
18
1:
13
0;
1<
b101111 0
b1011 ,
b1110 (
b101 '
b1110 .
b101000010000010010101100100001010000100010100101110000011011000111010101110011010000010111000000110001 *
#9500
1/
#9600
0/
#9650
1%
0$
1I
1!
1J
b1111 #
1H
0E
0A
0D
0@
17
08
0:
14
16
1;
b110000 0
b1111 ,
b101 (
b1111 '
b1111 .
b1000001 *
#9700
1/
#9800
0/
#9850
b11111111111111111111111111111111 1
